﻿**********************************************************************
                     CnPack For Delphi/C++Builder
                   中國人自己的開放源碼第三方開發包
                 (C)Copyright 2001-2016 CnPack 開發組
**********************************************************************

                           CnPack IDE 專家包
                             Version 1.1.0
                         =======================
                          CnPack 開發組 2016.02


======================================================================
1. CnPack IDE 專家包簡介
======================================================================

    CnWizards 是 CnPack 項目組的主力產品之一，中文全稱是 CnPack IDE 專
家包，英文全稱是 CnPack IDE Wizards，簡稱 CnWizards。CnWizards 是一組
集成在 Delphi/C++Builder/BDS 的 IDE 中，用於增強 IDE 功能、提高 IDE 的
可用性及開發效率的免費、開放源碼工具。

    CnWizards 產品主要面對使用 Delphi 5 6 7、C++Builder 5 6 以及 BDS
2005 2006、RAD Studio 2007 2009 2010、XE、XE2、XE3、XE4、XE5、XE6、XE7
、XE8、10 Seattle 進行開發的程式師。

    CnWizards 目前包括以下幾種語言的發佈版本：簡體中文、繁體中文、英語、
俄語、德語。

======================================================================
2. 許可協議
======================================================================

    CnPack 專家包以開放源碼 (Open Source) 的形式發佈，遵守 CnPack 的許
可協議，受 CnPack 許可協議的保護。

    License 文件中有該協議的詳細描述，具體內容可參考協議文件。

    請訪問 CnPack 開發網站，以獲得最新的更新消息：

    http://www.cnpack.org

======================================================================
3. 安裝使用
======================================================================

    下載 CnWizards 後直接運行安裝文件，即可按照提示進行專家包的安裝。
幫助內容可參考 CnWizards 自帶的幫助文件。

    如果您在使用專家包的過程中發現任何問題，請與 CnPack 開發組聯繫：

    http://www.cnpack.org
    mailto:master@cnpack.org

======================================================================
4. 目錄內容
======================================================================

    CnWizards 的代碼包中包含以下幾個目錄：

    1、Bin 二進制文件輸出目錄與運行期數據存儲目錄，包括多語文件等。
    2、Dcu 供編譯文件存放的臨時目錄。
    3、Doc 專家包開發文檔目錄，裡面包含了所有 CnWizards 設計開發文檔以
及各種開發規範文檔。
    4、Help 專家包幫助源文件目錄。
    5、Install 專家包安裝文件製作目錄。
    6、Make 專家包構建目錄。
    7、Source 專家包源代碼目錄，所有的 CnWizards 源碼放於該目錄下。
    8、Tools 存放專家包附帶的工具的源碼。

======================================================================
5. 程序及源碼下載
======================================================================

    最新的 CnWizards 源碼可以從 cnpack 開發網站下載，或者使用以下地址：

    cnpack 組件包源碼:  http://download.cnpack.org/CnVcl.zip
    CnWizards 安裝程序: http://download.cnpack.org/CnWizards.exe
    CnWizards 源代碼:   http://download.cnpack.org/CnWizards_Src.zip

    GIT 源代碼檢出：
    http://github.com/cnpack

======================================================================
6. 編譯及自動構建
======================================================================

    編譯 CnWizards 源碼需要從 cnpack 網站或 SVN 中取得 cnpack 組件包的
源代碼，放在 cnwizards 源碼的同級目錄下。打開 Source 目錄下的相應工程文
件進行編譯即可。Tools 目錄下為附加工具源碼。

    自動構建工具在 Make 目錄下，在命令行方式下運行 want 可看到相關提示。


『完』