﻿**********************************************************************
                     CnPack For Delphi/C++Builder
                A Free, Open Source Project from China
                 (C)Copyright 2001-2016 CnPack Team
**********************************************************************

                         CnPack IDE Wizards
                           Version 1.1.0
                       =======================
                         CnPack Team 2016.02


======================================================================
1. CnWizards Einleitung
======================================================================

    CnWizards ist das Hauptprodukt von CnPack. Der vollständige 
Name im Englischen heißt 'CnPack IDE Wizards'. Es handelt sich 
um eine freie Plug-In Werkzeug-Sammlung, die in Delphi/C++Builder 
eingebunden werden kann, damit die Effizienz bei der Entwicklung 
gesteigert werden kann.

    CnWizards wurde entworfen, um Programmierern die mit Delphi 5 6 7,
C++Builder 5 6 oder BDS 2005 2006 oder RAD Studio 2007 2009 2010, XE, 
XE2, XE3, XE4, XE5, XE6, XE7, XE8, 10 Seattle arbeiten, die Arbeit zu
erleichtern.

    Die offizielle Version der CnWizards beinhalt folgende Sprachen: 
Simplified Chinese, Traditional Chinese, Englisch, Russisch und Deutsch.

======================================================================
2. Software Copyright 
======================================================================

    Die Produkte von CnPack werden unter der CnPack Lizenz 
veröffentlicht und sind von dieser auch urheberrechtlich geschützt.
	
    Die Lizenz-Datei beschreibt den Schutz, bitte lesen Sie die 
Datei, um weitere Einzelheiten zu erfahren.
	
    Auf der CnPack Internetseite können Sie die neuesten 
Informationen erfahren.
	
    http://www.cnpack.org

======================================================================
3. Installation
======================================================================

    Nach dem Herunterladen des Installations-Programms von unserer 
Internet-Seite können Sie das Programm starten, um die cnWizards zu 
installieren. Für weitere Informationen lesen Sie bitte die Hilfe-Datei.

    Wenn Sie irgendwelche Probleme während der Arbeit mit cnWizards haben,
kontaktieren Sie uns bitte unter:

    http://www.cnpack.org
    mailto:master@cnpack.org

======================================================================
4. Struktur
======================================================================

    Es befinden sich mehrere Unter-Verzeichnisse in dem Quelltext 
der cnWizards:
	
    1. Bin:     beinhaltet die Binär-Dateien und weitere Dateien, die
                für die Laufzeit benötigt werden, inklusive der Dateien
                für die Spachen Einstellung.
    2. Dcu:     Temporäres Verzeichnis für das kompilieren.
    3. Doc:     beinhaltet die Dokumentation der CnWizards.
    4. Help:    beinhaltet html Quelltext der CnWizards Hilfe Datei.
    5. Install: beinhaltet die Installations Skripte.
    6. Make:    beinhaltet Skripte für das automatische Herstellen.
    7. Source:  beinhaltet den ganzen Quelltext der CnWizards.
    8. Tools:   beinhaltet den Quelltext der anderen Tools der cnWizards.
	
======================================================================
5. Herunterladen
======================================================================

Sie können die neueste Version von der cnPack Internet-Seite 
	herunterladen oder:

    CnPack Komponenten Paket: http://download.cnpack.org/CnVcl.zip
    CnWizards Installer:      http://download.cnpack.org/CnWizards.exe
    CnWizards Quelltext:      http://download.cnpack.org/CnWizards_Src.zip

    GIT: http://github.com/cnpack

======================================================================
6. Kompilierung und Herstellung
======================================================================

    Als erstes müssen Sie den cnpack Quelltext herunterladen und in das 
entsprechende Quelltext Verzeichnis dekomprimieren. Dann öffnen sie die 
Projekt-Datei in dem "Source"-Verzeichnis zum compilieren. Das "Tools" 
Verzeichnis beinhaltet weitere Quelltexte der anderen Werkzeuge der 
CnWizards.

    Das Werkzeug zum automatischen Herstellen befindet sich in dem "Make" 
Unter-Verzeichnis. Um weitere Informationen zu erlangen starten Sie
"want.exe" auf der Kommandozeile.

[EOF]