﻿**********************************************************************
                     CnPack For Delphi/C++Builder
                   中国人自己的开放源码第三方开发包
                 (C)Copyright 2001-2016 CnPack 开发组
**********************************************************************

                           CnPack IDE 专家包
                             Version 1.1.0
                         =======================
                          CnPack 开发组 2016.02


======================================================================
1. CnPack IDE 专家包简介
======================================================================

    CnWizards 是 CnPack 项目组的主力产品之一，中文全称是 CnPack IDE 专
家包，英文全称是 CnPack IDE Wizards，简称 CnWizards。CnWizards 是一组
集成在 Delphi/C++Builder/BDS 的 IDE 中，用于增强 IDE 功能、提高 IDE 的
可用性及开发效率的免费、开放源码工具。

    CnWizards 产品主要面对使用 Delphi 5 6 7、C++Builder 5 6 以及 BDS
2005 2006、RAD Studio 2007 2009 2010、XE、XE2、XE3、XE4、XE5、XE6、XE7
、XE8、10 Seattle 进行开发的程序员。

    CnWizards 目前包括以下几种语言的发布版本：简体中文、繁体中文、英语、
俄语、德语。

======================================================================
2. 许可协议
======================================================================

    CnPack 专家包以开放源码 (Open Source) 的形式发布，遵守 CnPack 的许
可协议，受 CnPack 许可协议的保护。

    License 文件中有该协议的详细描述，具体内容可参考协议文件。

    请访问 CnPack 开发网站，以获得最新的更新消息：

    http://www.cnpack.org

======================================================================
3. 安装使用
======================================================================

    下载 CnWizards 后直接运行安装文件，即可按照提示进行专家包的安装。
帮助内容可参考 CnWizards 自带的帮助文件。

    如果您在使用专家包的过程中发现任何问题，请与 CnPack 开发组联系：

    http://www.cnpack.org
    mailto:master@cnpack.org

======================================================================
4. 目录内容
======================================================================

    CnWizards 的代码包中包含以下几个目录：

    1、Bin 二进制文件输出目录与运行期数据存储目录，包括多语文件等。
    2、Dcu 供编译文件存放的临时目录。
    3、Doc 专家包开发文档目录，里面包含了所有 CnWizards 设计开发文档以
及各种开发规范文档。
    4、Help 专家包帮助源文件目录。
    5、Install 专家包安装文件制作目录。
    6、Make 专家包构建目录。
    7、Source 专家包源代码目录，所有的 CnWizards 源码放于该目录下。
    8、Tools 存放专家包附带的工具的源码。

======================================================================
5. 程序及源码下载
======================================================================

    最新的 CnWizards 源码可以从 cnpack 开发网站下载，或者使用以下地址：

    cnpack 组件包源码:  http://download.cnpack.org/CnVcl.zip
    CnWizards 安装程序: http://download.cnpack.org/CnWizards.exe
    CnWizards 源代码:   http://download.cnpack.org/CnWizards_Src.zip

    GIT 源代码检出：
    http://github.com/cnpack

======================================================================
6. 编译及自动构建
======================================================================

    编译 CnWizards 源码需要从 cnpack 网站或 SVN 中取得 cnpack 组件包的
源代码，放在 cnwizards 源码的同级目录下。打开 Source 目录下的相应工程文
件进行编译即可。Tools 目录下为附加工具源码。

    自动构建工具在 Make 目录下，在命令行方式下运行 want 可看到相关提示。


『完』